Andrew Bowen DATA607 Tidyverse Create
…
Showing off some forcats functions as well. Let’s see a
count of total polls by pollster, using the fct_count
function on our tibble.

fct_count(tbl_df$pollster, sort=TRUE)

## # A tibble: 146 × 2
##    f                                   n
##    <fct>                           <int>
##  1 Siena College/NYT Upshot          372
##  2 Monmouth U.                       246
##  3 PPP                               142
##  4 Change Research                   110
##  5 Emerson College Polling Society   103
##  6 Global Strategy Group              95
##  7 DCCC Targeting Team                78
##  8 GBAO                               64
##  9 SurveyUSA                          58
## 10 Greenberg Quinlan Rosner           56
## # … with 136 more rows
…
