Vignette Title
…
Data cleaning There is a data with medical_treatment
as “?”. Since we are not sure what sort of medical_treatement it is, we
are omitting the records in the new variable. We’re grouping the type of
medical_treatement and counting how many patient has readmitted.

hospital_readmission_by_treatment <- patient_records_test %>% 
  filter(readmitted == 1) %>%
  filter(medical_specialty != "?") %>%
  group_by(medical_specialty) %>%
  count() %>% 
  arrange(desc(n))

hospital_readmission_by_treatment
#> # A tibble: 58 × 2
#> # Groups:   medical_specialty [58]
#>    medical_specialty              n
#>    <chr>                      <int>
#>  1 InternalMedicine            4183
#>  2 Emergency/Trauma            2503
#>  3 Family/GeneralPractice      2363
#>  4 Cardiology                  1489
#>  5 Surgery-General              898
#>  6 Nephrology                   605
#>  7 Radiologist                  339
#>  8 Orthopedics                  305
#>  9 Pulmonology                  275
#> 10 Orthopedics-Reconstructive   245
#> # … with 48 more rows
#> # ℹ Use `print(n = ...)` to see more rows
…
