DATA 607: Data Acquisition and Management
…
new_col <- covid_19_data %>% dplyr::select(Confirmed) %>% purrr::map(percent_total)
class(new_col)

## [1] "list"

new_col[[1]][1:5]

## [1] 10.049964  8.420722  7.667703  6.338768  3.915102

covid_19_data <- covid_19_data %>% mutate("Percent_Total" = round(unlist(new_col),2))
covid_19_data

## # A tibble: 58 × 7
##    Province_State Country_Region   Lat  Long_ Confirmed Deaths Percent_Total
##    <chr>          <chr>          <dbl>  <dbl>     <dbl>  <dbl>         <dbl>
##  1 California     US              36.1 -120.    5517900  76478         10.0 
##  2 Texas          US              31.1  -97.6   4623370  75748          8.42
##  3 Florida        US              27.8  -81.7   4209927  62504          7.67
##  4 New York       US              42.2  -74.9   3480280  59508          6.34
##  5 Illinois       US              40.3  -89.0   2149574  31017          3.92
##  6 Pennsylvania   US              40.6  -77.2   2036424  36705          3.71
##  7 Ohio           US              40.4  -82.8   2016082  31897          3.67
##  8 Georgia        US              33.0  -83.6   1839879  31443          3.35
##  9 Michigan       US              43.3  -84.5   1710325  29020          3.12
## 10 North Carolina US              35.6  -79.8   1686667  19426          3.07
## # … with 48 more rows
…
